Analysis: an inference example • analyzr
…
sbc <- sbc %>% select(id, name, gender, age, years_edu, utterance_clean)
sbc <- sbc[complete.cases(sbc), ]

Extract dependent variable

Now we need to count the occurrences of ‘uh/um’ for each utterance. We will add a column with the counts for each filler type using str_count() and then we will change this ‘wide’ format to ‘long’ format with gather(). That is, we want the fillers to be under one column and the number of each filler to be in a separate column.

sbc <- 
  sbc %>% 
  mutate(um = str_count(utterance_clean, "\\b(um|u=m)\\b")) %>% 
  mutate(uh = str_count(utterance_clean, "\\b(uh|u=h)\\b"))

sbc 
#> # A tibble: 11,331 x 8
#>       id name   gender   age years_edu utterance_clean             um    uh
#>    <dbl> <chr>  <chr>  <dbl>     <dbl> <chr>                    <int> <int>
#>  1     1 lenore female    30        16 so you don't need to go…     0     0
#>  2     1 lenore female    30        16 to                           0     0
#>  3     1 lenore female    30        16 to do the feet               0     0
#>  4     1 lenore female    30        16 do the hooves                0     0
#>  5     1 lenore female    30        16 did they train you           0     0
#>  6     1 lenore female    30        16 did they train you that      0     0
#>  7     1 lenore female    30        16 so you have your own eq…     0     0
#>  8     1 lenore female    30        16 but                          0     0
#>  9     1 lenore female    30        16 yeah                         0     0
#> 10     1 lenore female    30        16 i bet                        0     0
#> # … with 11,321 more rows

sbc <- 
  sbc %>% 
  gather(filler_type, filler_count, um:uh)

sbc
#> # A tibble: 22,662 x 8
#>       id name  gender   age years_edu utterance_clean filler_type
#>    <dbl> <chr> <chr>  <dbl>     <dbl> <chr>           <chr>      
#>  1     1 leno… female    30        16 so you don't n… um         
#>  2     1 leno… female    30        16 to              um         
#>  3     1 leno… female    30        16 to do the feet  um         
#>  4     1 leno… female    30        16 do the hooves   um         
#>  5     1 leno… female    30        16 did they train… um         
#>  6     1 leno… female    30        16 did they train… um         
#>  7     1 leno… female    30        16 so you have yo… um         
#>  8     1 leno… female    30        16 but             um         
#>  9     1 leno… female    30        16 yeah            um         
#> 10     1 leno… female    30        16 i bet           um         
#> # … with 22,652 more rows, and 1 more variable: filler_count <int>
…
