Analysis: an exploratory example • analyzr
…
As we can see the most frequent words, in terms of number of occurrences is very similar between the categories. This is very much expected as natural language tends to show a striking leftward skew in frequency counts with primarily grammatical words forming the majority of word tokens in any (sizable) corpus. To distinguish between the words the form the scaffolding of language (grammatical) and words of importance (content), we will use the Term-weighted Inverse Document Frequency (tf-idf). This measure takes into the account the overall distribution across documents within a category weighting those terms that occur in many documents within a category (such as those in the above raw frequency plot) lower. On the whole, this measure attempts to strikes a balance between common grammatical terms and content terms.

brown_category_freq <- # calculate the tf-idf measure
  brown_category_words %>% 
  bind_tf_idf(word, category, n) %>% 
  arrange(category, desc(tf_idf)) %>% 
  ungroup()

brown_category_freq # View
#> # A tibble: 135,497 x 7
#>    category  word         n total       tf   idf   tf_idf
#>    <chr>     <chr>    <int> <int>    <dbl> <dbl>    <dbl>
#>  1 adventure matsuo      35 58347 0.000600  2.71 0.00162 
#>  2 adventure jess        33 58347 0.000566  2.71 0.00153 
#>  3 adventure brannon     29 58347 0.000497  2.71 0.00135 
#>  4 adventure ramey       28 58347 0.000480  2.71 0.00130 
#>  5 adventure barton      25 58347 0.000428  2.71 0.00116 
#>  6 adventure tilghman    25 58347 0.000428  2.71 0.00116 
#>  7 adventure curt        31 58347 0.000531  2.01 0.00107 
#>  8 adventure greg        25 58347 0.000428  2.01 0.000863
#>  9 adventure langford    18 58347 0.000308  2.71 0.000835
#> 10 adventure lalaurie    17 58347 0.000291  2.71 0.000789
#> # … with 135,487 more rows
…
Analysis

Category similarity

Now that we have a measure which helps us get at the content of the categories, let’s now find out which categories tend to be similar to each other in text content. We will want to find the pairwise corrlation between the word frequencies and categories. The widyr package provides a key function for this task pairwise_cor(). We will use the tf_idf score to focus in on the distribution of words from a importance-based perspective.

library(widyr)

brown_category_cor <- 
  brown_category_freq %>% 
  pairwise_cor(category, word, tf_idf)

brown_category_cor # View the cateogory-category correlation coefficients
#> # A tibble: 210 x 3
#>    item1          item2     correlation
#>    <chr>          <chr>           <dbl>
#>  1 belles_lettres adventure    -0.0225 
#>  2 editorial      adventure    -0.0236 
#>  3 fiction        adventure     0.0431 
#>  4 government     adventure    -0.0249 
#>  5 hobbies        adventure    -0.0124 
#>  6 humor          adventure    -0.00166
#>  7 learned        adventure    -0.0330 
#>  8 lore           adventure    -0.00805
#>  9 mystery        adventure     0.0538 
#> 10 news           adventure    -0.0169 
#> # … with 200 more rows
…
