Data: The Tidy and the Untidy • analyzr
…
We see that there are 83 observations and 11 variables. Each variable corresponds to an attribute of the specific animal. We see that there are 5 categorical variables and 6 continuous variables. It is also apparent that there is some missing data, which is represented with NA or <NA> values depending on the variable type (categorical or continuous). It is not uncommon to have missing values in various cells of a dataset, for now it is just worth noting how they are represented in the data.

We can also see the data in a more standard tabular format by typing the name of the dataset in the Console.

msleep # tabular view of the data
#> # A tibble: 83 x 11
#>    name  genus vore  order conservation sleep_total sleep_rem sleep_cycle
#>    <chr> <chr> <chr> <chr> <chr>              <dbl>     <dbl>       <dbl>
#>  1 Chee… Acin… carni Carn… lc                  12.1      NA        NA    
#>  2 Owl … Aotus omni  Prim… <NA>                17         1.8      NA    
#>  3 Moun… Aplo… herbi Rode… nt                  14.4       2.4      NA    
#>  4 Grea… Blar… omni  Sori… lc                  14.9       2.3       0.133
#>  5 Cow   Bos   herbi Arti… domesticated         4         0.7       0.667
#>  6 Thre… Brad… herbi Pilo… <NA>                14.4       2.2       0.767
#>  7 Nort… Call… carni Carn… vu                   8.7       1.4       0.383
#>  8 Vesp… Calo… <NA>  Rode… <NA>                 7        NA        NA    
#>  9 Dog   Canis carni Carn… domesticated        10.1       2.9       0.333
#> 10 Roe … Capr… herbi Arti… lc                   3        NA        NA    
#> # … with 73 more rows, and 3 more variables: awake <dbl>, brainwt <dbl>,
#> #   bodywt <dbl>
…
Considering our ‘tidy’ dataset definition, what is wrong with the following data frame?

How should this data ideally be structured for tidy-style analysis?

Tidying data

The basic problem here is that our data is a summary of religion and various levels of income. So in essence, we really only have two variables, religion and income. The gather() function will allow us to effectively group the income levels into one column (income). We exclude the religion column.

pew_tidy_sum <- 
  pew %>% 
  gather(income, count, -religion)
pew_tidy_sum
#> # A tibble: 180 x 3
#>    religion                income count
#>    <chr>                   <chr>  <int>
#>  1 Agnostic                <$10k     27
#>  2 Atheist                 <$10k     12
#>  3 Buddhist                <$10k     27
#>  4 Catholic                <$10k    418
#>  5 Don’t know/refused      <$10k     15
#>  6 Evangelical Prot        <$10k    575
#>  7 Hindu                   <$10k      1
#>  8 Historically Black Prot <$10k    228
#>  9 Jehovah's Witness       <$10k     20
#> 10 Jewish                  <$10k     19
#> # … with 170 more rows

The real number of observations is still not transparent as we still have counts for each of the combinations of religion and income. To find out how many observations where made we can sum the counts. We can see how many true observation there are by summing the count column.

sum(pew_tidy_sum$count)
#> [1] 35556

We can unsummarize this data into individual observations with uncount().

pew_tidy_ind <- uncount(pew_tidy_sum, count)
pew_tidy_ind
#> # A tibble: 35,556 x 2
#>    religion income
#>    <chr>    <chr> 
#>  1 Agnostic <$10k 
#>  2 Agnostic <$10k 
#>  3 Agnostic <$10k 
#>  4 Agnostic <$10k 
#>  5 Agnostic <$10k 
#>  6 Agnostic <$10k 
#>  7 Agnostic <$10k 
#>  8 Agnostic <$10k 
#>  9 Agnostic <$10k 
#> 10 Agnostic <$10k 
#> # … with 35,546 more rows
…
