First Steps in Wrangling Data • analyzr
…
You often want to explore your data by summarizing. A basic summary is count().

sdac %>% 
  count()
#> # A tibble: 1 x 1
#>        n
#>    <int>
#> 1 223606

You can also add column names to count() to group your count summary.

sdac %>% 
  count(birth_year, sort = TRUE)
#> # A tibble: 47 x 2
#>    birth_year     n
#>         <dbl> <int>
#>  1       1959 11821
#>  2       1956 11566
#>  3       1965 11041
#>  4       1960 10870
#>  5       1941 10250
#>  6       1963 10239
#>  7       1962  9995
#>  8       1961  8655
#>  9       1957  7589
#> 10       1964  7300
#> # … with 37 more rows

You can also use the group_by() function to expliciy group your data for multiple operations.

sdac %>% 
  group_by(birth_year) %>% 
  count()
#> # A tibble: 47 x 2
#> # Groups:   birth_year [47]
#>    birth_year     n
#>         <dbl> <int>
#>  1       1924  1457
#>  2       1927    65
#>  3       1929    58
#>  4       1930  1387
#>  5       1931  1082
#>  6       1932   132
#>  7       1933  3541
#>  8       1934  1754
#>  9       1935  4720
#> 10       1936  4630
#> # … with 37 more rows
…
